datasetInfo — datasetInfo • gemmaAPI
…
#> $GPL15207$lastNeedsAttentionEvent
#> NULL
#> 
#> $GPL15207$curationNote
#> NULL
#> 
#> $GPL15207$`_totalInQuery`
#> [1] 0
#> 
#> $GPL15207$id
#> [1] 783
#> 
#> 
datasetInfo('GSE81454', request='data',filter = FALSE)
#> # A tibble: 49,395 x 37
#>    Probe Sequence GeneSymbol GeneName GemmaId NCBIid `GSE81454_Bioma~
#>    <chr> <chr>    <chr>      <chr>    <chr>   <chr>             <dbl>
#>  1 1171~ 1171510~ NA         NA       NA      NA                 5.57
#>  2 1171~ 1171510~ NA         NA       NA      NA                 5.49
#>  3 1171~ 1171510~ NA         NA       NA      NA                 5.26
#>  4 1171~ 1171510~ TNFAIP8L1  TNF alp~ 383466  126282             6.95
#>  5 1171~ 1171510~ OTOP2      otopetr~ 371285  92736              4.90
#>  6 1171~ 1171510~ C17orf78   chromos~ 418711  284099             3.85
#>  7 1171~ 1171510~ CTAGE6|CT~ CTAGE f~ 425383~ 34030~             5.08
#>  8 1171~ 1171510~ F8A1|F8A3~ coagula~ 176266~ 8263|~             5.22
#>  9 1171~ 1171510~ LINC01098  long in~ 421233  285501             3.67
#> 10 1171~ 1171510~ SAMD7      sterile~ 426827  344658             4.54
#> # ... with 49,385 more rows, and 30 more variables:
#> #   `GSE81454_Biomat_17___BioAssayId=414332Name=patient1258.030[38792]` <dbl>,
#> #   `GSE81454_Biomat_19___BioAssayId=414331Name=patient1258.030[38848]` <dbl>,
#> #   `GSE81454_Biomat_3___BioAssayId=414330Name=patient1258.030[39011]` <dbl>,
#> #   `GSE81454_Biomat_1___BioAssayId=414329Name=patient1258.030[39105]` <dbl>,
#> #   `GSE81454_Biomat_29___BioAssayId=414345Name=patient1258.343[39400]` <dbl>,
#> #   `GSE81454_Biomat_5___BioAssayId=414344Name=patient1258.343[39428]` <dbl>,
#> #   `GSE81454_Biomat_2___BioAssayId=414343Name=patient1258.343[39456]` <dbl>,
#> #   `GSE81454_Biomat_9___BioAssayId=414342Name=patient1258.343[39540]` <dbl>,
…
